%YAML 1.1
%TAG !u! tag:unity3d.com,2011:
--- !u!74 &7400000
AnimationClip:
  m_ObjectHideFlags: 0
  m_CorrespondingSourceObject: {fileID: 0}
  m_PrefabInstance: {fileID: 0}
  m_PrefabAsset: {fileID: 0}
  m_Name: TurtleBullet_Fire
  serializedVersion: 6
  m_Legacy: 0
  m_Compressed: 0
  m_UseHighQualityCurve: 1
  m_RotationCurves: []
  m_CompressedRotationCurves: []
  m_EulerCurves: []
  m_PositionCurves: []
  m_ScaleCurves: []
  m_FloatCurves: []
  m_PPtrCurves:
  - curve:
    - time: 0
      value: {fileID: 21300000, guid: f7abf69828f145744b48a5d871660cd8, type: 3}
    - time: 0.016666668
      value: {fileID: 21300000, guid: 22691d16e424b8443bd7492db2a64422, type: 3}
    - time: 0.033333335
      value: {fileID: 21300000, guid: 4a85f3fb031d2c34388ada1efb4bc9f7, type: 3}
    - time: 0.05
      value: {fileID: 21300000, guid: 1aed2605fc38bfb4b8bfb8c55229a352, type: 3}
    - time: 0.06666667
      value: {fileID: 21300000, guid: 324432b1d6945c649a51dc320ce545a0, type: 3}
    - time: 0.083333336
      value: {fileID: 21300000, guid: 9806e0a5c811a4848b109036d106b264, type: 3}
    - time: 0.1
      value: {fileID: 21300000, guid: 9a4c81ea5f97321419f20c90f8ab94f7, type: 3}
    - time: 0.11666667
      value: {fileID: 21300000, guid: e53e7d42b0ab9ac44bb62f7df3e16df5, type: 3}
    - time: 0.13333334
      value: {fileID: 21300000, guid: b2689e1769a566a44a17027b264aae08, type: 3}
    - time: 0.15
      value: {fileID: 21300000, guid: 88b3d75baf38eee4c86a6b372a95e4c9, type: 3}
    - time: 0.16666667
      value: {fileID: 21300000, guid: 551e42f5ce721da4194fd4c0d1778d28, type: 3}
    - time: 0.18333334
      value: {fileID: 21300000, guid: 090f5b1b2eed82d4ba250b779cfb6539, type: 3}
    - time: 0.2
      value: {fileID: 21300000, guid: 0d327c5f4d8fedc40bf2a09897f16a16, type: 3}
    - time: 0.21666667
      value: {fileID: 21300000, guid: 0f70d88c32db8524687e3614c474b237, type: 3}
    - time: 0.23333333
      value: {fileID: 21300000, guid: 63d7569a05a40624e8c4d8a4aad800ef, type: 3}
    - time: 0.25
      value: {fileID: 21300000, guid: d72a7818330b5254bb5c4e74379418ab, type: 3}
    - time: 0.26666668
      value: {fileID: 21300000, guid: f8d54ef7713d54a43bcaa09c7e721b1d, type: 3}
    - time: 0.28333333
      value: {fileID: 21300000, guid: c5cd404c17a627249b1dc453e29399a2, type: 3}
    - time: 0.3
      value: {fileID: 21300000, guid: 8f342fda0f099c6428d3c138d42b07df, type: 3}
    - time: 0.31666666
      value: {fileID: 21300000, guid: 3b147e96568b99a4b9eb0ad7ad9689c3, type: 3}
    - time: 0.33333334
      value: {fileID: 21300000, guid: 021554a73977f61429e318c05f079bca, type: 3}
    - time: 0.35
      value: {fileID: 21300000, guid: b361dd89febcb65458109966e71084f3, type: 3}
    - time: 0.36666667
      value: {fileID: 21300000, guid: f58199a0e626da148adb104839a82ca2, type: 3}
    attribute: m_Sprite
    path: 
    classID: 212
    script: {fileID: 0}
  m_SampleRate: 60
  m_WrapMode: 0
  m_Bounds:
    m_Center: {x: 0, y: 0, z: 0}
    m_Extent: {x: 0, y: 0, z: 0}
  m_ClipBindingConstant:
    genericBindings:
    - serializedVersion: 2
      path: 0
      attribute: 0
      script: {fileID: 0}
      typeID: 212
      customType: 23
      isPPtrCurve: 1
    pptrCurveMapping:
    - {fileID: 21300000, guid: f7abf69828f145744b48a5d871660cd8, type: 3}
    - {fileID: 21300000, guid: 22691d16e424b8443bd7492db2a64422, type: 3}
    - {fileID: 21300000, guid: 4a85f3fb031d2c34388ada1efb4bc9f7, type: 3}
    - {fileID: 21300000, guid: 1aed2605fc38bfb4b8bfb8c55229a352, type: 3}
    - {fileID: 21300000, guid: 324432b1d6945c649a51dc320ce545a0, type: 3}
    - {fileID: 21300000, guid: 9806e0a5c811a4848b109036d106b264, type: 3}
    - {fileID: 21300000, guid: 9a4c81ea5f97321419f20c90f8ab94f7, type: 3}
    - {fileID: 21300000, guid: e53e7d42b0ab9ac44bb62f7df3e16df5, type: 3}
    - {fileID: 21300000, guid: b2689e1769a566a44a17027b264aae08, type: 3}
    - {fileID: 21300000, guid: 88b3d75baf38eee4c86a6b372a95e4c9, type: 3}
    - {fileID: 21300000, guid: 551e42f5ce721da4194fd4c0d1778d28, type: 3}
    - {fileID: 21300000, guid: 090f5b1b2eed82d4ba250b779cfb6539, type: 3}
    - {fileID: 21300000, guid: 0d327c5f4d8fedc40bf2a09897f16a16, type: 3}
    - {fileID: 21300000, guid: 0f70d88c32db8524687e3614c474b237, type: 3}
    - {fileID: 21300000, guid: 63d7569a05a40624e8c4d8a4aad800ef, type: 3}
    - {fileID: 21300000, guid: d72a7818330b5254bb5c4e74379418ab, type: 3}
    - {fileID: 21300000, guid: f8d54ef7713d54a43bcaa09c7e721b1d, type: 3}
    - {fileID: 21300000, guid: c5cd404c17a627249b1dc453e29399a2, type: 3}
    - {fileID: 21300000, guid: 8f342fda0f099c6428d3c138d42b07df, type: 3}
    - {fileID: 21300000, guid: 3b147e96568b99a4b9eb0ad7ad9689c3, type: 3}
    - {fileID: 21300000, guid: 021554a73977f61429e318c05f079bca, type: 3}
    - {fileID: 21300000, guid: b361dd89febcb65458109966e71084f3, type: 3}
    - {fileID: 21300000, guid: f58199a0e626da148adb104839a82ca2, type: 3}
  m_AnimationClipSettings:
    serializedVersion: 2
    m_AdditiveReferencePoseClip: {fileID: 0}
    m_AdditiveReferencePoseTime: 0
    m_StartTime: 0
    m_StopTime: 0.38333336
    m_OrientationOffsetY: 0
    m_Level: 0
    m_CycleOffset: 0
    m_HasAdditiveReferencePose: 0
    m_LoopTime: 1
    m_LoopBlend: 0
    m_LoopBlendOrientation: 0
    m_LoopBlendPositionY: 0
    m_LoopBlendPositionXZ: 0
    m_KeepOriginalOrientation: 0
    m_KeepOriginalPositionY: 1
    m_KeepOriginalPositionXZ: 0
    m_HeightFromFeet: 0
    m_Mirror: 0
  m_EditorCurves: []
  m_EulerEditorCurves: []
  m_HasGenericRootTransform: 0
  m_HasMotionFloatCurves: 0
  m_Events: []
