%YAML 1.1
%TAG !u! tag:unity3d.com,2011:
--- !u!687078895 &4343727234628468602
SpriteAtlas:
  m_ObjectHideFlags: 0
  m_CorrespondingSourceObject: {fileID: 0}
  m_PrefabInstance: {fileID: 0}
  m_PrefabAsset: {fileID: 0}
  m_Name: Ammo
  m_EditorData:
    serializedVersion: 2
    textureSettings:
      serializedVersion: 2
      anisoLevel: 1
      compressionQuality: 50
      maxTextureSize: 2048
      textureCompression: 0
      filterMode: 1
      generateMipMaps: 0
      readable: 0
      crunchedCompression: 0
      sRGB: 1
    platformSettings:
    - serializedVersion: 3
      m_BuildTarget: DefaultTexturePlatform
      m_MaxTextureSize: 2048
      m_ResizeAlgorithm: 0
      m_TextureFormat: -1
      m_TextureCompression: 1
      m_CompressionQuality: 50
      m_CrunchedCompression: 1
      m_AllowsAlphaSplitting: 0
      m_Overridden: 0
      m_AndroidETC2FallbackOverride: 0
      m_ForceMaximumCompressionQuality_BC6H_BC7: 0
    packingSettings:
      serializedVersion: 2
      padding: 4
      blockOffset: 1
      allowAlphaSplitting: 0
      enableRotation: 1
      enableTightPacking: 1
    secondaryTextureSettings: {}
    variantMultiplier: 1
    packables:
    - {fileID: 2800000, guid: 11fea81a5c3da8e4e8665a31bdf61880, type: 3}
    - {fileID: 2800000, guid: 2e8ef3292b316c34b93b8212bbee08a2, type: 3}
    - {fileID: 2800000, guid: e20e95b3de1638c4fbe7ee33c6b90405, type: 3}
    - {fileID: 2800000, guid: f07d4ad3d405f05488b54a954ee17724, type: 3}
    - {fileID: 2800000, guid: 35d70be4164b4a14da45b7443a57b2c1, type: 3}
    - {fileID: 2800000, guid: 9b0c7e09b50654e4f92f83632dce8936, type: 3}
    - {fileID: 2800000, guid: 2134e497ae26c6d46a3dc4a9c4cc27ad, type: 3}
    - {fileID: 2800000, guid: d38185e274ab761449fac38804bdc6fc, type: 3}
    - {fileID: 2800000, guid: f4216e0162365b14294cb2f82970f150, type: 3}
    - {fileID: 2800000, guid: 66ed44adfb202da409af1abdfa235b14, type: 3}
    - {fileID: 2800000, guid: 15ef07c16bbc5de49a0dfb905aece2eb, type: 3}
    - {fileID: 2800000, guid: 7b615ae1a3cb4aa4489883615ee51f62, type: 3}
    - {fileID: 2800000, guid: f2c5524dc37492f40812772cb5341555, type: 3}
    - {fileID: 2800000, guid: 4d456b72903acf040bbb6da649190bc7, type: 3}
    - {fileID: 2800000, guid: 07a387585fdc4704fb74b130a43ad253, type: 3}
    - {fileID: 2800000, guid: dd0d8aef9dc8bc248a2021577ee052b3, type: 3}
    - {fileID: 2800000, guid: ddc4915f7a271994f91e8d7775752b6e, type: 3}
    - {fileID: 2800000, guid: fcd8bf55b5bca114887e6f2d2e331933, type: 3}
    - {fileID: 2800000, guid: 39b1323eed98c194b9255f37ee83043f, type: 3}
    - {fileID: 2800000, guid: 12cc7208d26e1b24ebcf2d9505986882, type: 3}
    - {fileID: 2800000, guid: 81d38607336f14549b2ea929e79ff595, type: 3}
    - {fileID: 2800000, guid: 4ad15de57fd318c4080a939ea3b04f62, type: 3}
    - {fileID: 2800000, guid: 4446300f551bf5346adf710097bdeb86, type: 3}
    - {fileID: 2800000, guid: 497f12aa6ddf9df45b8d3aa702839dac, type: 3}
    - {fileID: 2800000, guid: d335eb72d75f90d44a361b519a76b643, type: 3}
    - {fileID: 2800000, guid: 68c5854c63b0ee84383265445a633942, type: 3}
    - {fileID: 2800000, guid: d4f9d9249a4ba8840bf894335bc7131d, type: 3}
    - {fileID: 2800000, guid: 376cbd29b39caf746aa70e7fe24c977e, type: 3}
    - {fileID: 2800000, guid: c6e4c5c5c5b4e1a4197b4fbc5aaad66a, type: 3}
    - {fileID: 2800000, guid: fe77506ee1f1f01488898173dd0ac8c1, type: 3}
    - {fileID: 2800000, guid: 8a1f80ede770d7b41b36d9e84190bf29, type: 3}
    - {fileID: 2800000, guid: c6317725a1327574eb3f4e7f0b767289, type: 3}
    - {fileID: 2800000, guid: f6799d080ef1bb146b92e28c9eee6a75, type: 3}
    - {fileID: 2800000, guid: 92dbe0ef38ccc7b4c9e6e00e44610e9e, type: 3}
    - {fileID: 2800000, guid: 43d55f04ca3d1c54abf896639b0cd11c, type: 3}
    - {fileID: 2800000, guid: ddcf87aba44fa8b49a5fc2e357fa7202, type: 3}
    - {fileID: 2800000, guid: dde3c6186fc135449b6bc8ffad159bc6, type: 3}
    - {fileID: 2800000, guid: c80ffab6e8756b942b7d0943e07e352c, type: 3}
    - {fileID: 2800000, guid: 2a8180bad0d1122479ce731ca84a4150, type: 3}
    - {fileID: 2800000, guid: 613df56c1b282234e997da5b9b1f6735, type: 3}
    - {fileID: 2800000, guid: b1aafb22001b6684ba8a1379a0f7a5b5, type: 3}
    - {fileID: 2800000, guid: dba0dcf9e3c3a8e4187e0834d4f4f9ae, type: 3}
    - {fileID: 2800000, guid: b964f6130c49a5e4caef1d8268e8ada9, type: 3}
    - {fileID: 2800000, guid: 6b42cbef235453b45b5f597b4ec6a829, type: 3}
    - {fileID: 2800000, guid: a71f6de6ab8bb404da47820afc5e1320, type: 3}
    - {fileID: 2800000, guid: 4cada5f86a88bb241b44b087ef8144d2, type: 3}
    - {fileID: 2800000, guid: 2ef51cc0331235c44912f8e6705edde1, type: 3}
    - {fileID: 2800000, guid: 8e52fa10543ca94469f42bfb38627fd2, type: 3}
    - {fileID: 2800000, guid: 8a9efe29168ad3e45aec207b843f7179, type: 3}
    - {fileID: 2800000, guid: 1b9d8419b4df42c4a97f58f4705f5c34, type: 3}
    - {fileID: 2800000, guid: cfa833519ea438145b9bec6a99180d53, type: 3}
    - {fileID: 2800000, guid: 0d68ed93668bff84d9ea54666a6ab8c1, type: 3}
    - {fileID: 2800000, guid: 801dd51e7bf5c614b9e01abc7f21b4ed, type: 3}
    - {fileID: 2800000, guid: d85e2629e8473c340895061528d33c0c, type: 3}
    - {fileID: 2800000, guid: f4f9d2907dd633848bd35d12e5a2ff7a, type: 3}
    - {fileID: 2800000, guid: 1db86b2e1c4667347a03b41b6fc4b066, type: 3}
    - {fileID: 2800000, guid: 7abc63cb871f62e4ead6b1f720692623, type: 3}
    - {fileID: 2800000, guid: 888a09dc8c4756c4cb7ce2d88fa49670, type: 3}
    - {fileID: 2800000, guid: b4233d54dc5cc8146b6f8a9958168981, type: 3}
    - {fileID: 2800000, guid: ba0d5b51d27588e44a9073d41046b846, type: 3}
    - {fileID: 2800000, guid: bdc7f63c15374f447a2ab0264d489fa8, type: 3}
    - {fileID: 2800000, guid: 446b17acedf34184e81bc3fd83b0fb7f, type: 3}
    - {fileID: 2800000, guid: 0aec134aa80ca694297a53dc0139fb99, type: 3}
    - {fileID: 2800000, guid: 66939f8c58fe78c448836da600374007, type: 3}
    - {fileID: 2800000, guid: 749caf0dd66a71a4a982a68fd4ab4346, type: 3}
    - {fileID: 2800000, guid: 51a769195e1ffe844bf22c900e89e6a8, type: 3}
    - {fileID: 2800000, guid: fda8206a6d1c1bb43a5223b267eb8c92, type: 3}
    - {fileID: 2800000, guid: 0cf7bf87c4c8a504f87e7572ab3a902c, type: 3}
    - {fileID: 2800000, guid: 727eab20ac776d14998b1783a09af265, type: 3}
    - {fileID: 2800000, guid: 1baa76d82bbf9244a90983532b92fcc9, type: 3}
    - {fileID: 2800000, guid: 392b96bae82d8b34a9fb233ac21330d4, type: 3}
    - {fileID: 2800000, guid: d5d79611b6b521c4cbabbfc82f082b5c, type: 3}
    - {fileID: 2800000, guid: 503a61f26c05f4846a14615a967cd114, type: 3}
    - {fileID: 2800000, guid: 82583a9d08ca0364386322bb639a9103, type: 3}
    - {fileID: 2800000, guid: 1caba574716eb2248bc3473f6cc22423, type: 3}
    - {fileID: 2800000, guid: 8e17f4052b3a37546be72acfcb381194, type: 3}
    - {fileID: 2800000, guid: f1fd0b31ff7a2b447b2ae9371000d554, type: 3}
    - {fileID: 2800000, guid: e97eb0bdda9b15e4e853c3c266c37072, type: 3}
    - {fileID: 2800000, guid: f7abf69828f145744b48a5d871660cd8, type: 3}
    - {fileID: 2800000, guid: 22691d16e424b8443bd7492db2a64422, type: 3}
    - {fileID: 2800000, guid: 4a85f3fb031d2c34388ada1efb4bc9f7, type: 3}
    - {fileID: 2800000, guid: 1aed2605fc38bfb4b8bfb8c55229a352, type: 3}
    - {fileID: 2800000, guid: 324432b1d6945c649a51dc320ce545a0, type: 3}
    - {fileID: 2800000, guid: 9806e0a5c811a4848b109036d106b264, type: 3}
    - {fileID: 2800000, guid: 9a4c81ea5f97321419f20c90f8ab94f7, type: 3}
    - {fileID: 2800000, guid: e53e7d42b0ab9ac44bb62f7df3e16df5, type: 3}
    - {fileID: 2800000, guid: b2689e1769a566a44a17027b264aae08, type: 3}
    - {fileID: 2800000, guid: 88b3d75baf38eee4c86a6b372a95e4c9, type: 3}
    - {fileID: 2800000, guid: 551e42f5ce721da4194fd4c0d1778d28, type: 3}
    - {fileID: 2800000, guid: 090f5b1b2eed82d4ba250b779cfb6539, type: 3}
    - {fileID: 2800000, guid: 0d327c5f4d8fedc40bf2a09897f16a16, type: 3}
    - {fileID: 2800000, guid: 0f70d88c32db8524687e3614c474b237, type: 3}
    - {fileID: 2800000, guid: 63d7569a05a40624e8c4d8a4aad800ef, type: 3}
    - {fileID: 2800000, guid: d72a7818330b5254bb5c4e74379418ab, type: 3}
    - {fileID: 2800000, guid: f8d54ef7713d54a43bcaa09c7e721b1d, type: 3}
    - {fileID: 2800000, guid: c5cd404c17a627249b1dc453e29399a2, type: 3}
    - {fileID: 2800000, guid: 8f342fda0f099c6428d3c138d42b07df, type: 3}
    - {fileID: 2800000, guid: 3b147e96568b99a4b9eb0ad7ad9689c3, type: 3}
    - {fileID: 2800000, guid: 021554a73977f61429e318c05f079bca, type: 3}
    - {fileID: 2800000, guid: b361dd89febcb65458109966e71084f3, type: 3}
    - {fileID: 2800000, guid: f58199a0e626da148adb104839a82ca2, type: 3}
    - {fileID: 2800000, guid: e97eb0bdda9b15e4e853c3c266c37072, type: 3}
    bindAsDefault: 1
    isAtlasV2: 0
    cachedData: {fileID: 0}
  m_MasterAtlas: {fileID: 0}
  m_PackedSprites:
  - {fileID: 21300000, guid: 8e52fa10543ca94469f42bfb38627fd2, type: 3}
  - {fileID: 21300000, guid: 727eab20ac776d14998b1783a09af265, type: 3}
  - {fileID: 21300000, guid: f4f9d2907dd633848bd35d12e5a2ff7a, type: 3}
  - {fileID: 21300000, guid: f58199a0e626da148adb104839a82ca2, type: 3}
  - {fileID: 21300000, guid: 2ef51cc0331235c44912f8e6705edde1, type: 3}
  - {fileID: 21300000, guid: f4216e0162365b14294cb2f82970f150, type: 3}
  - {fileID: 21300000, guid: d5d79611b6b521c4cbabbfc82f082b5c, type: 3}
  - {fileID: 21300000, guid: f1fd0b31ff7a2b447b2ae9371000d554, type: 3}
  - {fileID: 21300000, guid: cfa833519ea438145b9bec6a99180d53, type: 3}
  - {fileID: 21300000, guid: ba0d5b51d27588e44a9073d41046b846, type: 3}
  - {fileID: 21300000, guid: 324432b1d6945c649a51dc320ce545a0, type: 3}
  - {fileID: 21300000, guid: 15ef07c16bbc5de49a0dfb905aece2eb, type: 3}
  - {fileID: 21300000, guid: 7b615ae1a3cb4aa4489883615ee51f62, type: 3}
  - {fileID: 21300000, guid: b1aafb22001b6684ba8a1379a0f7a5b5, type: 3}
  - {fileID: 21300000, guid: e53e7d42b0ab9ac44bb62f7df3e16df5, type: 3}
  - {fileID: 21300000, guid: 4d456b72903acf040bbb6da649190bc7, type: 3}
  - {fileID: 21300000, guid: d335eb72d75f90d44a361b519a76b643, type: 3}
  - {fileID: 21300000, guid: d38185e274ab761449fac38804bdc6fc, type: 3}
  - {fileID: 21300000, guid: 503a61f26c05f4846a14615a967cd114, type: 3}
  - {fileID: 21300000, guid: b964f6130c49a5e4caef1d8268e8ada9, type: 3}
  - {fileID: 21300000, guid: 0d68ed93668bff84d9ea54666a6ab8c1, type: 3}
  - {fileID: 21300000, guid: e20e95b3de1638c4fbe7ee33c6b90405, type: 3}
  - {fileID: 21300000, guid: f07d4ad3d405f05488b54a954ee17724, type: 3}
  - {fileID: 21300000, guid: 43d55f04ca3d1c54abf896639b0cd11c, type: 3}
  - {fileID: 21300000, guid: d4f9d9249a4ba8840bf894335bc7131d, type: 3}
  - {fileID: 21300000, guid: b4233d54dc5cc8146b6f8a9958168981, type: 3}
  - {fileID: 21300000, guid: 1caba574716eb2248bc3473f6cc22423, type: 3}
  - {fileID: 21300000, guid: 35d70be4164b4a14da45b7443a57b2c1, type: 3}
  - {fileID: 21300000, guid: 8e17f4052b3a37546be72acfcb381194, type: 3}
  - {fileID: 21300000, guid: 1aed2605fc38bfb4b8bfb8c55229a352, type: 3}
  - {fileID: 21300000, guid: c6317725a1327574eb3f4e7f0b767289, type: 3}
  - {fileID: 21300000, guid: fcd8bf55b5bca114887e6f2d2e331933, type: 3}
  - {fileID: 21300000, guid: 9806e0a5c811a4848b109036d106b264, type: 3}
  - {fileID: 21300000, guid: c6e4c5c5c5b4e1a4197b4fbc5aaad66a, type: 3}
  - {fileID: 21300000, guid: 4ad15de57fd318c4080a939ea3b04f62, type: 3}
  - {fileID: 21300000, guid: 551e42f5ce721da4194fd4c0d1778d28, type: 3}
  - {fileID: 21300000, guid: 22691d16e424b8443bd7492db2a64422, type: 3}
  - {fileID: 21300000, guid: 3b147e96568b99a4b9eb0ad7ad9689c3, type: 3}
  - {fileID: 21300000, guid: c80ffab6e8756b942b7d0943e07e352c, type: 3}
  - {fileID: 21300000, guid: a71f6de6ab8bb404da47820afc5e1320, type: 3}
  - {fileID: 21300000, guid: 81d38607336f14549b2ea929e79ff595, type: 3}
  - {fileID: 21300000, guid: b2689e1769a566a44a17027b264aae08, type: 3}
  - {fileID: 21300000, guid: 0cf7bf87c4c8a504f87e7572ab3a902c, type: 3}
  - {fileID: 21300000, guid: 2134e497ae26c6d46a3dc4a9c4cc27ad, type: 3}
  - {fileID: 21300000, guid: 021554a73977f61429e318c05f079bca, type: 3}
  - {fileID: 21300000, guid: f8d54ef7713d54a43bcaa09c7e721b1d, type: 3}
  - {fileID: 21300000, guid: 12cc7208d26e1b24ebcf2d9505986882, type: 3}
  - {fileID: 21300000, guid: f6799d080ef1bb146b92e28c9eee6a75, type: 3}
  - {fileID: 21300000, guid: dde3c6186fc135449b6bc8ffad159bc6, type: 3}
  - {fileID: 21300000, guid: d72a7818330b5254bb5c4e74379418ab, type: 3}
  - {fileID: 21300000, guid: 07a387585fdc4704fb74b130a43ad253, type: 3}
  - {fileID: 21300000, guid: f7abf69828f145744b48a5d871660cd8, type: 3}
  - {fileID: 21300000, guid: 1baa76d82bbf9244a90983532b92fcc9, type: 3}
  - {fileID: 21300000, guid: 4cada5f86a88bb241b44b087ef8144d2, type: 3}
  - {fileID: 21300000, guid: 9b0c7e09b50654e4f92f83632dce8936, type: 3}
  - {fileID: 21300000, guid: 1b9d8419b4df42c4a97f58f4705f5c34, type: 3}
  - {fileID: 21300000, guid: 51a769195e1ffe844bf22c900e89e6a8, type: 3}
  - {fileID: 21300000, guid: 2e8ef3292b316c34b93b8212bbee08a2, type: 3}
  - {fileID: 21300000, guid: d85e2629e8473c340895061528d33c0c, type: 3}
  - {fileID: 21300000, guid: 376cbd29b39caf746aa70e7fe24c977e, type: 3}
  - {fileID: 21300000, guid: 8a9efe29168ad3e45aec207b843f7179, type: 3}
  - {fileID: 21300000, guid: b361dd89febcb65458109966e71084f3, type: 3}
  - {fileID: 21300000, guid: dba0dcf9e3c3a8e4187e0834d4f4f9ae, type: 3}
  - {fileID: 21300000, guid: 11fea81a5c3da8e4e8665a31bdf61880, type: 3}
  - {fileID: 21300000, guid: 0aec134aa80ca694297a53dc0139fb99, type: 3}
  - {fileID: 21300000, guid: fda8206a6d1c1bb43a5223b267eb8c92, type: 3}
  - {fileID: 21300000, guid: 63d7569a05a40624e8c4d8a4aad800ef, type: 3}
  - {fileID: 21300000, guid: 497f12aa6ddf9df45b8d3aa702839dac, type: 3}
  - {fileID: 21300000, guid: 2a8180bad0d1122479ce731ca84a4150, type: 3}
  - {fileID: 21300000, guid: 392b96bae82d8b34a9fb233ac21330d4, type: 3}
  - {fileID: 21300000, guid: 8f342fda0f099c6428d3c138d42b07df, type: 3}
  - {fileID: 21300000, guid: 9a4c81ea5f97321419f20c90f8ab94f7, type: 3}
  - {fileID: 21300000, guid: 090f5b1b2eed82d4ba250b779cfb6539, type: 3}
  - {fileID: 21300000, guid: 88b3d75baf38eee4c86a6b372a95e4c9, type: 3}
  - {fileID: 21300000, guid: ddcf87aba44fa8b49a5fc2e357fa7202, type: 3}
  - {fileID: 21300000, guid: 7abc63cb871f62e4ead6b1f720692623, type: 3}
  - {fileID: 21300000, guid: 4a85f3fb031d2c34388ada1efb4bc9f7, type: 3}
  - {fileID: 21300000, guid: bdc7f63c15374f447a2ab0264d489fa8, type: 3}
  - {fileID: 21300000, guid: c5cd404c17a627249b1dc453e29399a2, type: 3}
  - {fileID: 21300000, guid: 68c5854c63b0ee84383265445a633942, type: 3}
  - {fileID: 21300000, guid: 613df56c1b282234e997da5b9b1f6735, type: 3}
  - {fileID: 21300000, guid: 0f70d88c32db8524687e3614c474b237, type: 3}
  - {fileID: 21300000, guid: 66939f8c58fe78c448836da600374007, type: 3}
  - {fileID: 21300000, guid: 446b17acedf34184e81bc3fd83b0fb7f, type: 3}
  - {fileID: 21300000, guid: 888a09dc8c4756c4cb7ce2d88fa49670, type: 3}
  - {fileID: 21300000, guid: 749caf0dd66a71a4a982a68fd4ab4346, type: 3}
  - {fileID: 21300000, guid: f2c5524dc37492f40812772cb5341555, type: 3}
  - {fileID: 21300000, guid: 82583a9d08ca0364386322bb639a9103, type: 3}
  - {fileID: 21300000, guid: 66ed44adfb202da409af1abdfa235b14, type: 3}
  - {fileID: 21300000, guid: e97eb0bdda9b15e4e853c3c266c37072, type: 3}
  - {fileID: 21300000, guid: 8a1f80ede770d7b41b36d9e84190bf29, type: 3}
  - {fileID: 21300000, guid: 801dd51e7bf5c614b9e01abc7f21b4ed, type: 3}
  - {fileID: 21300000, guid: 1db86b2e1c4667347a03b41b6fc4b066, type: 3}
  - {fileID: 21300000, guid: 39b1323eed98c194b9255f37ee83043f, type: 3}
  - {fileID: 21300000, guid: fe77506ee1f1f01488898173dd0ac8c1, type: 3}
  - {fileID: 21300000, guid: 4446300f551bf5346adf710097bdeb86, type: 3}
  - {fileID: 21300000, guid: ddc4915f7a271994f91e8d7775752b6e, type: 3}
  - {fileID: 21300000, guid: 0d327c5f4d8fedc40bf2a09897f16a16, type: 3}
  - {fileID: 21300000, guid: 92dbe0ef38ccc7b4c9e6e00e44610e9e, type: 3}
  - {fileID: 21300000, guid: dd0d8aef9dc8bc248a2021577ee052b3, type: 3}
  - {fileID: 21300000, guid: 6b42cbef235453b45b5f597b4ec6a829, type: 3}
  m_PackedSpriteNamesToIndex:
  - basic_bullet_explode_023
  - basic_bullet_explode_044
  - basic_bullet_explode_030
  - turtle_shot_flight_022
  - basic_bullet_explode_022
  - basic_bullet_shoot_007
  - basic_bullet_explode_047
  - basic_bullet_explode_052
  - basic_bullet_explode_026
  - basic_bullet_explode_035
  - turtle_shot_flight_004
  - basic_bullet_shoot_009
  - basic_bullet_shoot_010
  - basic_bullet_explode_016
  - turtle_shot_flight_007
  - basic_bullet_shoot_012
  - basic_bullet_explode_000
  - basic_bullet_shoot_006
  - basic_bullet_explode_048
  - basic_bullet_explode_018
  - basic_bullet_explode_027
  - basic_bullet_shoot_001
  - basic_bullet_shoot_002
  - basic_bullet_explode_010
  - basic_bullet_explode_002
  - basic_bullet_explode_034
  - basic_bullet_explode_050
  - basic_bullet_shoot_003
  - basic_bullet_explode_051
  - turtle_shot_flight_003
  - basic_bullet_explode_007
  - basic_bullet_shoot_016
  - turtle_shot_flight_005
  - basic_bullet_explode_004
  - basic_bullet_shoot_020
  - turtle_shot_flight_010
  - turtle_shot_flight_001
  - turtle_shot_flight_019
  - basic_bullet_explode_013
  - basic_bullet_explode_020
  - basic_bullet_shoot_019
  - turtle_shot_flight_008
  - basic_bullet_explode_043
  - basic_bullet_shoot_005
  - turtle_shot_flight_020
  - turtle_shot_flight_016
  - basic_bullet_shoot_018
  - basic_bullet_explode_008
  - basic_bullet_explode_012
  - turtle_shot_flight_015
  - basic_bullet_shoot_013
  - turtle_shot_flight_000
  - basic_bullet_explode_045
  - basic_bullet_explode_021
  - basic_bullet_shoot_004
  - basic_bullet_explode_025
  - basic_bullet_explode_041
  - basic_bullet_shoot_000
  - basic_bullet_explode_029
  - basic_bullet_explode_003
  - basic_bullet_explode_024
  - turtle_shot_flight_021
  - basic_bullet_explode_017
  - shot4_asset
  - basic_bullet_explode_038
  - basic_bullet_explode_042
  - turtle_shot_flight_014
  - basic_bullet_shoot_022
  - basic_bullet_explode_014
  - basic_bullet_explode_046
  - turtle_shot_flight_018
  - turtle_shot_flight_006
  - turtle_shot_flight_011
  - turtle_shot_flight_009
  - basic_bullet_explode_011
  - basic_bullet_explode_032
  - turtle_shot_flight_002
  - basic_bullet_explode_036
  - turtle_shot_flight_017
  - basic_bullet_explode_001
  - basic_bullet_explode_015
  - turtle_shot_flight_013
  - basic_bullet_explode_039
  - basic_bullet_explode_037
  - basic_bullet_explode_033
  - basic_bullet_explode_040
  - basic_bullet_shoot_011
  - basic_bullet_explode_049
  - basic_bullet_shoot_008
  - shot1_asset
  - basic_bullet_explode_006
  - basic_bullet_explode_028
  - basic_bullet_explode_031
  - basic_bullet_shoot_017
  - basic_bullet_explode_005
  - basic_bullet_shoot_021
  - basic_bullet_shoot_015
  - turtle_shot_flight_012
  - basic_bullet_explode_009
  - basic_bullet_shoot_014
  - basic_bullet_explode_019
  m_RenderDataMap: {}
  m_Tag: Ammo
  m_IsVariant: 0
