%YAML 1.1
%TAG !u! tag:unity3d.com,2011:
--- !u!687078895 &4343727234628468602
SpriteAtlas:
  m_ObjectHideFlags: 0
  m_CorrespondingSourceObject: {fileID: 0}
  m_PrefabInstance: {fileID: 0}
  m_PrefabAsset: {fileID: 0}
  m_Name: Planets
  m_EditorData:
    serializedVersion: 2
    textureSettings:
      serializedVersion: 2
      anisoLevel: 1
      compressionQuality: 50
      maxTextureSize: 2048
      textureCompression: 0
      filterMode: 1
      generateMipMaps: 0
      readable: 0
      crunchedCompression: 0
      sRGB: 1
    platformSettings:
    - serializedVersion: 3
      m_BuildTarget: DefaultTexturePlatform
      m_MaxTextureSize: 2048
      m_ResizeAlgorithm: 0
      m_TextureFormat: -1
      m_TextureCompression: 1
      m_CompressionQuality: 50
      m_CrunchedCompression: 1
      m_AllowsAlphaSplitting: 0
      m_Overridden: 0
      m_AndroidETC2FallbackOverride: 0
      m_ForceMaximumCompressionQuality_BC6H_BC7: 0
    packingSettings:
      serializedVersion: 2
      padding: 4
      blockOffset: 1
      allowAlphaSplitting: 0
      enableRotation: 1
      enableTightPacking: 1
    secondaryTextureSettings: {}
    variantMultiplier: 1
    packables:
    - {fileID: 2800000, guid: 762a9530a0b13e347a9243ca9ffeb514, type: 3}
    - {fileID: 21300000, guid: bb0d5d7c3f827624796a2589ab3ee0e8, type: 3}
    - {fileID: 2800000, guid: 40c6b12207a2f7b4d89cebd87c303801, type: 3}
    - {fileID: 21300000, guid: b04c24285f1acd34e9e60705c78cb864, type: 3}
    - {fileID: 2800000, guid: 7c319980570fa04458d24c2b30eaa0e6, type: 3}
    - {fileID: 2800000, guid: b04c24285f1acd34e9e60705c78cb864, type: 3}
    - {fileID: 2800000, guid: d83a39fbdcc73354d815cab77c2f64e6, type: 3}
    bindAsDefault: 1
    isAtlasV2: 0
    cachedData: {fileID: 0}
  m_MasterAtlas: {fileID: 0}
  m_PackedSprites:
  - {fileID: 21300000, guid: 762a9530a0b13e347a9243ca9ffeb514, type: 3}
  - {fileID: 21300000, guid: 7c319980570fa04458d24c2b30eaa0e6, type: 3}
  - {fileID: 21300000, guid: 40c6b12207a2f7b4d89cebd87c303801, type: 3}
  - {fileID: 21300000, guid: b04c24285f1acd34e9e60705c78cb864, type: 3}
  - {fileID: 21300000, guid: d83a39fbdcc73354d815cab77c2f64e6, type: 3}
  - {fileID: 21300000, guid: bb0d5d7c3f827624796a2589ab3ee0e8, type: 3}
  m_PackedSpriteNamesToIndex:
  - (Small) Earthlike 1
  - Ice 1
  - (Small) Rocky 1
  - Mask Left 1
  - Gas 1
  - Mask Left 2
  m_RenderDataMap: {}
  m_Tag: Planets
  m_IsVariant: 0
