%YAML 1.1
%TAG !u! tag:unity3d.com,2011:
--- !u!687078895 &4343727234628468602
SpriteAtlas:
  m_ObjectHideFlags: 0
  m_CorrespondingSourceObject: {fileID: 0}
  m_PrefabInstance: {fileID: 0}
  m_PrefabAsset: {fileID: 0}
  m_Name: Turtle Ship
  m_EditorData:
    serializedVersion: 2
    textureSettings:
      serializedVersion: 2
      anisoLevel: 1
      compressionQuality: 50
      maxTextureSize: 2048
      textureCompression: 0
      filterMode: 1
      generateMipMaps: 0
      readable: 0
      crunchedCompression: 0
      sRGB: 1
    platformSettings:
    - serializedVersion: 3
      m_BuildTarget: DefaultTexturePlatform
      m_MaxTextureSize: 1024
      m_ResizeAlgorithm: 0
      m_TextureFormat: -1
      m_TextureCompression: 1
      m_CompressionQuality: 50
      m_CrunchedCompression: 1
      m_AllowsAlphaSplitting: 0
      m_Overridden: 0
      m_AndroidETC2FallbackOverride: 0
      m_ForceMaximumCompressionQuality_BC6H_BC7: 0
    packingSettings:
      serializedVersion: 2
      padding: 4
      blockOffset: 1
      allowAlphaSplitting: 0
      enableRotation: 1
      enableTightPacking: 1
    secondaryTextureSettings: {}
    variantMultiplier: 1
    packables:
    - {fileID: 2800000, guid: 544c08fbdf8645646a39dc9d04ce38ad, type: 3}
    - {fileID: 2800000, guid: fff5b5891db29a741b0f3f268eaceb68, type: 3}
    - {fileID: 2800000, guid: f510c7156999b2d4784f1c6bf8595b84, type: 3}
    - {fileID: 2800000, guid: dcea635f3e7768a429248e164e4c606c, type: 3}
    - {fileID: 2800000, guid: 5a9b8df551177404f816a152ef43301b, type: 3}
    - {fileID: 2800000, guid: 4bcf26136dde05b49b3c7b1443665aba, type: 3}
    - {fileID: 2800000, guid: e0137dd0c0da5c54b859d1c0a08847f0, type: 3}
    - {fileID: 2800000, guid: 0240980eeee0af04aab5ff6e3c8b6739, type: 3}
    - {fileID: 2800000, guid: f5f6d78b634b5b54ebf223f63a481392, type: 3}
    - {fileID: 2800000, guid: dea60166de4c04348a3b8490da957273, type: 3}
    - {fileID: 2800000, guid: a1b060e5ca3e6a444bee8ede65d93b1f, type: 3}
    - {fileID: 2800000, guid: 99f29bf7de965544fb05b757446b4194, type: 3}
    - {fileID: 2800000, guid: a1cc3ecde1aaeb34f9d0f0035c2ef637, type: 3}
    - {fileID: 2800000, guid: 221f4c12ca9c17e478a20f23c61826b4, type: 3}
    - {fileID: 2800000, guid: 64c33b409dbcf2540841652e95701396, type: 3}
    - {fileID: 2800000, guid: 5b80cf0445db1734fa85acc9a8124997, type: 3}
    - {fileID: 2800000, guid: 36a0e865c0a545844aa02cb9075c6fe5, type: 3}
    - {fileID: 2800000, guid: 210d25b8b160814428ac249576558d1e, type: 3}
    - {fileID: 2800000, guid: 9d7e663a720963547b6f0f49f9c16a91, type: 3}
    - {fileID: 2800000, guid: c9d7c11a09ccb4d418f60279d0d147e8, type: 3}
    - {fileID: 2800000, guid: 51453d97502bf6d4cb6f324990970252, type: 3}
    - {fileID: 2800000, guid: 65d23a5c67b3cbb418ad4e65c0fac19f, type: 3}
    - {fileID: 2800000, guid: fd6e4cfe855d6fd4eb5b493ed445392e, type: 3}
    - {fileID: 2800000, guid: 7c15914238f09ce4992124e02e894b8a, type: 3}
    - {fileID: 2800000, guid: 154efa96dea0c5d498b02961c6544cc3, type: 3}
    - {fileID: 2800000, guid: f811b2ae820e7884f9a909d2a74dc618, type: 3}
    - {fileID: 2800000, guid: fd96ce11836907540a97b7e02a6ee715, type: 3}
    - {fileID: 2800000, guid: 02b4d61b176db39459663ce4f2f7dd9d, type: 3}
    - {fileID: 2800000, guid: ecbe00bd82f9bef4390c6f2373e7146c, type: 3}
    - {fileID: 2800000, guid: 7b103d7f18092454aaebbd6f04158696, type: 3}
    - {fileID: 2800000, guid: 9b96ed7604a7bfc4c98be4881aa0e4dd, type: 3}
    - {fileID: 2800000, guid: bb585789c49e55d479b0ff939c444c6a, type: 3}
    - {fileID: 2800000, guid: 56be7645b6a43f144beacab461ac330c, type: 3}
    - {fileID: 2800000, guid: 399b3ee01bc6aa4478be00353f46a88a, type: 3}
    - {fileID: 2800000, guid: 660f4b6570d0fcb4bbd3190f30dc9e52, type: 3}
    - {fileID: 2800000, guid: 4753e6fab6b2db84c8edd4f6ce28d965, type: 3}
    - {fileID: 2800000, guid: f61cb53048197424eb6831c360ca0f3d, type: 3}
    - {fileID: 2800000, guid: 426769050285472438803bfd32cdcbb0, type: 3}
    - {fileID: 2800000, guid: 4834aa7251c5cd145b89de477fbd3e7e, type: 3}
    - {fileID: 2800000, guid: d2708de0350715743b500b61444dc5a7, type: 3}
    - {fileID: 2800000, guid: 7da91bebb86701540812bf1fc17bcde2, type: 3}
    - {fileID: 2800000, guid: ea1f327185d3888438afe69f59600da0, type: 3}
    - {fileID: 2800000, guid: 0cc73560c6ad0984a8ca93ad53a4b80b, type: 3}
    - {fileID: 2800000, guid: 4c1dafe02bf58b742b61eb3541b0fb3d, type: 3}
    - {fileID: 2800000, guid: 5d0c18cd4dfa3e8448458a221b4d3325, type: 3}
    - {fileID: 2800000, guid: b3d5d5fa51481e54db1a04ae4deda048, type: 3}
    - {fileID: 2800000, guid: de943b51b8080974cb4d260ba0aca330, type: 3}
    - {fileID: 2800000, guid: d53b7a41805a16e43a225b2dd962993d, type: 3}
    - {fileID: 2800000, guid: 79d646decab4e7f41b882333b5914ef3, type: 3}
    - {fileID: 2800000, guid: b8e1c03872fdb9f4390d35b8bac0f51a, type: 3}
    - {fileID: 2800000, guid: 461ae46f9adea744b9c91f27b4008dea, type: 3}
    - {fileID: 2800000, guid: 21dae80a752828047a71345da3577e3c, type: 3}
    - {fileID: 2800000, guid: d6ae7ee5d4a2dac45aa686be8ef4a6ed, type: 3}
    - {fileID: 2800000, guid: a3e6cf349d2a7c745b1c11cd959c9be2, type: 3}
    - {fileID: 2800000, guid: 3b56889562c10b4468d301507700eb95, type: 3}
    - {fileID: 2800000, guid: 9f5aad39a82f57c499eb91bf36161520, type: 3}
    - {fileID: 2800000, guid: 30a5dd22f63198740b96a2632cb6a580, type: 3}
    - {fileID: 2800000, guid: 894056b287ece8c44a396349fca935f8, type: 3}
    - {fileID: 2800000, guid: 28ab919845023a94083a2151022f9c25, type: 3}
    - {fileID: 2800000, guid: 2c2efbabd3f490748ba4f0355b77a6d3, type: 3}
    - {fileID: 2800000, guid: 4939b88756b32704ea96f1cb4c5d3780, type: 3}
    - {fileID: 2800000, guid: 5825b5a56174a8a4e9ed104826c8a09e, type: 3}
    - {fileID: 2800000, guid: 1da59669632711d468af989a1f433548, type: 3}
    - {fileID: 2800000, guid: 53ebb605536b39d419b51229ecb94058, type: 3}
    - {fileID: 2800000, guid: 2c683cbdb46c10d4382281a51b9a2a9c, type: 3}
    - {fileID: 2800000, guid: 46b11a52bb884c642869ebacf1c9c035, type: 3}
    - {fileID: 2800000, guid: 810ba2a303eb02f44ba65242cae5934b, type: 3}
    - {fileID: 2800000, guid: b73b36ecff2430245ac08b14ac523adc, type: 3}
    - {fileID: 2800000, guid: 22f6784e7421e47459308b17d0501fc9, type: 3}
    - {fileID: 2800000, guid: d962892b86b47e24bb6a6b1628250e10, type: 3}
    - {fileID: 2800000, guid: 2115eeb10a7a27f4d96fde8d1fc73679, type: 3}
    - {fileID: 2800000, guid: 16cce9e7e652995408cce059537ad0bd, type: 3}
    - {fileID: 2800000, guid: 5c5d5cfbd9d96244e9d20fcb9957a698, type: 3}
    - {fileID: 2800000, guid: 9dbd5d253d71dce4ab7056d9c4fcb579, type: 3}
    - {fileID: 2800000, guid: 9fe51046de979b943af1fb7706338564, type: 3}
    - {fileID: 2800000, guid: e3160e17a918df449a191c2fdda1a7a4, type: 3}
    - {fileID: 2800000, guid: a75eda24843f1184d85f5c782a8fc5ed, type: 3}
    - {fileID: 2800000, guid: bfa38f2bc38b99546938d527044c05d9, type: 3}
    - {fileID: 2800000, guid: 02da7373b7c203a459139696ffd9c7c6, type: 3}
    - {fileID: 2800000, guid: 5d60b5bbba5a9d24dbee0b889cce9b5a, type: 3}
    - {fileID: 2800000, guid: 202d885debf39a540bf897c48ea134a0, type: 3}
    - {fileID: 2800000, guid: d7d9cf9b15b80ff4093702e6765e89d5, type: 3}
    - {fileID: 2800000, guid: 1357c94d11e1e7c48bc25dd5ce3e8b1c, type: 3}
    - {fileID: 2800000, guid: 63d73fc8d0a428b4890da9ccfa4da3f9, type: 3}
    - {fileID: 2800000, guid: b386f72853fd3024781ddb12db2dbe1c, type: 3}
    - {fileID: 2800000, guid: be604d32c64135143b6dd4055926f694, type: 3}
    - {fileID: 2800000, guid: 899a5bf24b6d9d14490596b6e02bffc7, type: 3}
    - {fileID: 2800000, guid: 2b208bf2e5d519045b7c13c328cc4ade, type: 3}
    - {fileID: 2800000, guid: 31a1c08ef8e17c945b91130a325fbf98, type: 3}
    - {fileID: 2800000, guid: 97a2549d836b0d04889bceceb0db8246, type: 3}
    - {fileID: 2800000, guid: 1e765b900dcd4fa448370718005bad8d, type: 3}
    - {fileID: 2800000, guid: 7d11325f71c79834abc2dc5dd3a65acb, type: 3}
    - {fileID: 2800000, guid: bece194f9ef37b8468def63287f96d4e, type: 3}
    - {fileID: 2800000, guid: 8b11152514a708a4eb9c83ae4b6ceb1b, type: 3}
    - {fileID: 2800000, guid: 1de81e04cc83d9e46bf88054350d6520, type: 3}
    - {fileID: 2800000, guid: b731325e6f5188e44b956e6df63772fb, type: 3}
    - {fileID: 2800000, guid: 9dfc3486bafac0a469dad5d499f4af4f, type: 3}
    - {fileID: 2800000, guid: 7042021b357e6e043b086bbddef79f53, type: 3}
    - {fileID: 2800000, guid: bdfe1391f03b58e40b2920bf73546849, type: 3}
    - {fileID: 2800000, guid: c00a1c63769c0b747837f0a2f80817a6, type: 3}
    - {fileID: 2800000, guid: b38e202ab208c0747a658894968010ce, type: 3}
    - {fileID: 2800000, guid: 96c3374d50fbb9d4092724cbc88f6594, type: 3}
    - {fileID: 2800000, guid: 1233ef1d014861a4eb5249f86cad0685, type: 3}
    - {fileID: 2800000, guid: 38ef203c1d51b2e438f48a1d2f659d71, type: 3}
    - {fileID: 2800000, guid: a009c584b31f81d418b5020ef661986a, type: 3}
    - {fileID: 2800000, guid: 64559710bcf5d2c4a8cfd7d92459fb91, type: 3}
    - {fileID: 2800000, guid: 99eaf89ffa13f83459d45ef15105dff0, type: 3}
    - {fileID: 2800000, guid: 52d2ad77e87a7ce4eb724f1092b6395f, type: 3}
    - {fileID: 2800000, guid: 7d84229cd728ce84ea0dd2b394fd7cac, type: 3}
    - {fileID: 2800000, guid: e2530d36b44b03840916d43946c07601, type: 3}
    - {fileID: 2800000, guid: 986d9c88bf1dddf46b8adf36d3c0e70d, type: 3}
    - {fileID: 2800000, guid: 16a55e2937c7a7b4b9ecaede8b3e7d8b, type: 3}
    - {fileID: 2800000, guid: ef5f1a6f6b942494fb5651b8ca16f9b5, type: 3}
    - {fileID: 2800000, guid: e620f82c3e5230540946901573c56e6d, type: 3}
    - {fileID: 2800000, guid: e3a643742f515ff4eb24db5cb1e7ed42, type: 3}
    - {fileID: 2800000, guid: a28d32830f410e74c91c89e3e4a819ae, type: 3}
    - {fileID: 21300000, guid: a28d32830f410e74c91c89e3e4a819ae, type: 3}
    - {fileID: 2800000, guid: 5cbddb13118838f4e982e718397737b5, type: 3}
    - {fileID: 2800000, guid: acb3319ea54d1c548acc3f4c0d9a9c41, type: 3}
    - {fileID: 2800000, guid: 2b4a9fb3c380f234a82eb698fe5339b3, type: 3}
    - {fileID: 2800000, guid: 24e9f5c2be2c9fe4d89c02306bc47173, type: 3}
    - {fileID: 2800000, guid: e21635569f0d1c143971156c7a4f8689, type: 3}
    - {fileID: 2800000, guid: 0fa19a9caf28b4449a142ecb61faef3a, type: 3}
    - {fileID: 2800000, guid: 3bfe635ab87e05946b29bc8ab5d8e5cb, type: 3}
    - {fileID: 2800000, guid: 782e0d039de9218439e5878d9ec1f740, type: 3}
    - {fileID: 2800000, guid: f600a5eac70d7ec47bbce498bc122e99, type: 3}
    - {fileID: 2800000, guid: f7dd065add48f88408669828820ab75d, type: 3}
    - {fileID: 2800000, guid: e7c2116be4477f942b2c841398645db7, type: 3}
    - {fileID: 2800000, guid: 454212f73db6dba40999023ff9423b57, type: 3}
    - {fileID: 2800000, guid: 0420d9907b4bf864fa25ce2f86c89940, type: 3}
    - {fileID: 2800000, guid: d5476f25c26608c4e82ad36fe49d5b94, type: 3}
    - {fileID: 2800000, guid: ff4e26c23cabc504f9a6d30f2689cfa6, type: 3}
    - {fileID: 2800000, guid: acde31d4d9d568f4bba2f03ce2c2ed95, type: 3}
    - {fileID: 2800000, guid: 2b33470c53be8fd4195523661b3d5ae9, type: 3}
    - {fileID: 2800000, guid: 10ee964dc3ae9b440ac6da1b2cce1063, type: 3}
    - {fileID: 2800000, guid: 685dd0fec34fff445a09bc36e7676e59, type: 3}
    - {fileID: 2800000, guid: 47c2554136073764cbc7f9e4c77c0b9c, type: 3}
    - {fileID: 2800000, guid: 2aa2f5f040bb153448cda7e7cef258a5, type: 3}
    - {fileID: 2800000, guid: 3faf263df3d54954e8f14594f5cc9fbf, type: 3}
    - {fileID: 2800000, guid: 19f978d7acce32249aa3f41aa8b6d60e, type: 3}
    - {fileID: 2800000, guid: cef03795f52312b48bec8eed305f9518, type: 3}
    - {fileID: 2800000, guid: 719604deb06193e45add566c93adaf8c, type: 3}
    - {fileID: 2800000, guid: cef07c96a12dbcd48ba9140cd4341c8f, type: 3}
    - {fileID: 2800000, guid: ba139cffb276a4146bdb3e10c5e25691, type: 3}
    - {fileID: 2800000, guid: 09e7555e3b4509741ac228d51859fd9e, type: 3}
    - {fileID: 2800000, guid: 55e1e83b670becf46ba1f13c9d34e50f, type: 3}
    bindAsDefault: 1
    isAtlasV2: 0
    cachedData: {fileID: 0}
  m_MasterAtlas: {fileID: 0}
  m_PackedSprites:
  - {fileID: 21300000, guid: 64559710bcf5d2c4a8cfd7d92459fb91, type: 3}
  - {fileID: 21300000, guid: f61cb53048197424eb6831c360ca0f3d, type: 3}
  - {fileID: 21300000, guid: 64c33b409dbcf2540841652e95701396, type: 3}
  - {fileID: 21300000, guid: 0cc73560c6ad0984a8ca93ad53a4b80b, type: 3}
  - {fileID: 21300000, guid: 0420d9907b4bf864fa25ce2f86c89940, type: 3}
  - {fileID: 21300000, guid: 1e765b900dcd4fa448370718005bad8d, type: 3}
  - {fileID: 21300000, guid: e0137dd0c0da5c54b859d1c0a08847f0, type: 3}
  - {fileID: 21300000, guid: d2708de0350715743b500b61444dc5a7, type: 3}
  - {fileID: 21300000, guid: 399b3ee01bc6aa4478be00353f46a88a, type: 3}
  - {fileID: 21300000, guid: 4c1dafe02bf58b742b61eb3541b0fb3d, type: 3}
  - {fileID: 21300000, guid: 2aa2f5f040bb153448cda7e7cef258a5, type: 3}
  - {fileID: 21300000, guid: fd96ce11836907540a97b7e02a6ee715, type: 3}
  - {fileID: 21300000, guid: 47c2554136073764cbc7f9e4c77c0b9c, type: 3}
  - {fileID: 21300000, guid: d53b7a41805a16e43a225b2dd962993d, type: 3}
  - {fileID: 21300000, guid: de943b51b8080974cb4d260ba0aca330, type: 3}
  - {fileID: 21300000, guid: ea1f327185d3888438afe69f59600da0, type: 3}
  - {fileID: 21300000, guid: bdfe1391f03b58e40b2920bf73546849, type: 3}
  - {fileID: 21300000, guid: 2115eeb10a7a27f4d96fde8d1fc73679, type: 3}
  - {fileID: 21300000, guid: 221f4c12ca9c17e478a20f23c61826b4, type: 3}
  - {fileID: 21300000, guid: 30a5dd22f63198740b96a2632cb6a580, type: 3}
  - {fileID: 21300000, guid: be604d32c64135143b6dd4055926f694, type: 3}
  - {fileID: 21300000, guid: 7c15914238f09ce4992124e02e894b8a, type: 3}
  - {fileID: 21300000, guid: 46b11a52bb884c642869ebacf1c9c035, type: 3}
  - {fileID: 21300000, guid: 4834aa7251c5cd145b89de477fbd3e7e, type: 3}
  - {fileID: 21300000, guid: 894056b287ece8c44a396349fca935f8, type: 3}
  - {fileID: 21300000, guid: 24e9f5c2be2c9fe4d89c02306bc47173, type: 3}
  - {fileID: 21300000, guid: ff4e26c23cabc504f9a6d30f2689cfa6, type: 3}
  - {fileID: 21300000, guid: 899a5bf24b6d9d14490596b6e02bffc7, type: 3}
  - {fileID: 21300000, guid: 2b208bf2e5d519045b7c13c328cc4ade, type: 3}
  - {fileID: 21300000, guid: 782e0d039de9218439e5878d9ec1f740, type: 3}
  - {fileID: 21300000, guid: 4bcf26136dde05b49b3c7b1443665aba, type: 3}
  - {fileID: 21300000, guid: 5cbddb13118838f4e982e718397737b5, type: 3}
  - {fileID: 21300000, guid: c00a1c63769c0b747837f0a2f80817a6, type: 3}
  - {fileID: 21300000, guid: 02da7373b7c203a459139696ffd9c7c6, type: 3}
  - {fileID: 21300000, guid: a28d32830f410e74c91c89e3e4a819ae, type: 3}
  - {fileID: 21300000, guid: 810ba2a303eb02f44ba65242cae5934b, type: 3}
  - {fileID: 21300000, guid: 2b4a9fb3c380f234a82eb698fe5339b3, type: 3}
  - {fileID: 21300000, guid: 1de81e04cc83d9e46bf88054350d6520, type: 3}
  - {fileID: 21300000, guid: 5b80cf0445db1734fa85acc9a8124997, type: 3}
  - {fileID: 21300000, guid: a75eda24843f1184d85f5c782a8fc5ed, type: 3}
  - {fileID: 21300000, guid: a3e6cf349d2a7c745b1c11cd959c9be2, type: 3}
  - {fileID: 21300000, guid: e3a643742f515ff4eb24db5cb1e7ed42, type: 3}
  - {fileID: 21300000, guid: a009c584b31f81d418b5020ef661986a, type: 3}
  - {fileID: 21300000, guid: acde31d4d9d568f4bba2f03ce2c2ed95, type: 3}
  - {fileID: 21300000, guid: 53ebb605536b39d419b51229ecb94058, type: 3}
  - {fileID: 21300000, guid: 426769050285472438803bfd32cdcbb0, type: 3}
  - {fileID: 21300000, guid: f510c7156999b2d4784f1c6bf8595b84, type: 3}
  - {fileID: 21300000, guid: 8b11152514a708a4eb9c83ae4b6ceb1b, type: 3}
  - {fileID: 21300000, guid: 9dbd5d253d71dce4ab7056d9c4fcb579, type: 3}
  - {fileID: 21300000, guid: d5476f25c26608c4e82ad36fe49d5b94, type: 3}
  - {fileID: 21300000, guid: 56be7645b6a43f144beacab461ac330c, type: 3}
  - {fileID: 21300000, guid: 36a0e865c0a545844aa02cb9075c6fe5, type: 3}
  - {fileID: 21300000, guid: 660f4b6570d0fcb4bbd3190f30dc9e52, type: 3}
  - {fileID: 21300000, guid: cef03795f52312b48bec8eed305f9518, type: 3}
  - {fileID: 21300000, guid: 3b56889562c10b4468d301507700eb95, type: 3}
  - {fileID: 21300000, guid: 5825b5a56174a8a4e9ed104826c8a09e, type: 3}
  - {fileID: 21300000, guid: a1b060e5ca3e6a444bee8ede65d93b1f, type: 3}
  - {fileID: 21300000, guid: d6ae7ee5d4a2dac45aa686be8ef4a6ed, type: 3}
  - {fileID: 21300000, guid: 5a9b8df551177404f816a152ef43301b, type: 3}
  - {fileID: 21300000, guid: e2530d36b44b03840916d43946c07601, type: 3}
  - {fileID: 21300000, guid: 9fe51046de979b943af1fb7706338564, type: 3}
  - {fileID: 21300000, guid: e21635569f0d1c143971156c7a4f8689, type: 3}
  - {fileID: 21300000, guid: dea60166de4c04348a3b8490da957273, type: 3}
  - {fileID: 21300000, guid: 9b96ed7604a7bfc4c98be4881aa0e4dd, type: 3}
  - {fileID: 21300000, guid: 9dfc3486bafac0a469dad5d499f4af4f, type: 3}
  - {fileID: 21300000, guid: 154efa96dea0c5d498b02961c6544cc3, type: 3}
  - {fileID: 21300000, guid: cef07c96a12dbcd48ba9140cd4341c8f, type: 3}
  - {fileID: 21300000, guid: e3160e17a918df449a191c2fdda1a7a4, type: 3}
  - {fileID: 21300000, guid: 52d2ad77e87a7ce4eb724f1092b6395f, type: 3}
  - {fileID: 21300000, guid: 4939b88756b32704ea96f1cb4c5d3780, type: 3}
  - {fileID: 21300000, guid: 51453d97502bf6d4cb6f324990970252, type: 3}
  - {fileID: 21300000, guid: 19f978d7acce32249aa3f41aa8b6d60e, type: 3}
  - {fileID: 21300000, guid: 16cce9e7e652995408cce059537ad0bd, type: 3}
  - {fileID: 21300000, guid: 454212f73db6dba40999023ff9423b57, type: 3}
  - {fileID: 21300000, guid: 99f29bf7de965544fb05b757446b4194, type: 3}
  - {fileID: 21300000, guid: b386f72853fd3024781ddb12db2dbe1c, type: 3}
  - {fileID: 21300000, guid: b8e1c03872fdb9f4390d35b8bac0f51a, type: 3}
  - {fileID: 21300000, guid: 986d9c88bf1dddf46b8adf36d3c0e70d, type: 3}
  - {fileID: 21300000, guid: 28ab919845023a94083a2151022f9c25, type: 3}
  - {fileID: 21300000, guid: 210d25b8b160814428ac249576558d1e, type: 3}
  - {fileID: 21300000, guid: 63d73fc8d0a428b4890da9ccfa4da3f9, type: 3}
  - {fileID: 21300000, guid: 16a55e2937c7a7b4b9ecaede8b3e7d8b, type: 3}
  - {fileID: 21300000, guid: 9f5aad39a82f57c499eb91bf36161520, type: 3}
  - {fileID: 21300000, guid: 1da59669632711d468af989a1f433548, type: 3}
  - {fileID: 21300000, guid: fff5b5891db29a741b0f3f268eaceb68, type: 3}
  - {fileID: 21300000, guid: bb585789c49e55d479b0ff939c444c6a, type: 3}
  - {fileID: 21300000, guid: 21dae80a752828047a71345da3577e3c, type: 3}
  - {fileID: 21300000, guid: c9d7c11a09ccb4d418f60279d0d147e8, type: 3}
  - {fileID: 21300000, guid: b38e202ab208c0747a658894968010ce, type: 3}
  - {fileID: 21300000, guid: 9d7e663a720963547b6f0f49f9c16a91, type: 3}
  - {fileID: 21300000, guid: 3bfe635ab87e05946b29bc8ab5d8e5cb, type: 3}
  - {fileID: 21300000, guid: f7dd065add48f88408669828820ab75d, type: 3}
  - {fileID: 21300000, guid: f600a5eac70d7ec47bbce498bc122e99, type: 3}
  - {fileID: 21300000, guid: b3d5d5fa51481e54db1a04ae4deda048, type: 3}
  - {fileID: 21300000, guid: 4753e6fab6b2db84c8edd4f6ce28d965, type: 3}
  - {fileID: 21300000, guid: 7042021b357e6e043b086bbddef79f53, type: 3}
  - {fileID: 21300000, guid: 02b4d61b176db39459663ce4f2f7dd9d, type: 3}
  - {fileID: 21300000, guid: d962892b86b47e24bb6a6b1628250e10, type: 3}
  - {fileID: 21300000, guid: bfa38f2bc38b99546938d527044c05d9, type: 3}
  - {fileID: 21300000, guid: 55e1e83b670becf46ba1f13c9d34e50f, type: 3}
  - {fileID: 21300000, guid: e7c2116be4477f942b2c841398645db7, type: 3}
  - {fileID: 21300000, guid: f5f6d78b634b5b54ebf223f63a481392, type: 3}
  - {fileID: 21300000, guid: d7d9cf9b15b80ff4093702e6765e89d5, type: 3}
  - {fileID: 21300000, guid: 2c2efbabd3f490748ba4f0355b77a6d3, type: 3}
  - {fileID: 21300000, guid: 5d60b5bbba5a9d24dbee0b889cce9b5a, type: 3}
  - {fileID: 21300000, guid: 7da91bebb86701540812bf1fc17bcde2, type: 3}
  - {fileID: 21300000, guid: 544c08fbdf8645646a39dc9d04ce38ad, type: 3}
  - {fileID: 21300000, guid: 5c5d5cfbd9d96244e9d20fcb9957a698, type: 3}
  - {fileID: 21300000, guid: 2b33470c53be8fd4195523661b3d5ae9, type: 3}
  - {fileID: 21300000, guid: e620f82c3e5230540946901573c56e6d, type: 3}
  - {fileID: 21300000, guid: 38ef203c1d51b2e438f48a1d2f659d71, type: 3}
  - {fileID: 21300000, guid: 65d23a5c67b3cbb418ad4e65c0fac19f, type: 3}
  - {fileID: 21300000, guid: 7d84229cd728ce84ea0dd2b394fd7cac, type: 3}
  - {fileID: 21300000, guid: 0fa19a9caf28b4449a142ecb61faef3a, type: 3}
  - {fileID: 21300000, guid: b73b36ecff2430245ac08b14ac523adc, type: 3}
  - {fileID: 21300000, guid: 1233ef1d014861a4eb5249f86cad0685, type: 3}
  - {fileID: 21300000, guid: 3faf263df3d54954e8f14594f5cc9fbf, type: 3}
  - {fileID: 21300000, guid: 10ee964dc3ae9b440ac6da1b2cce1063, type: 3}
  - {fileID: 21300000, guid: 96c3374d50fbb9d4092724cbc88f6594, type: 3}
  - {fileID: 21300000, guid: 1357c94d11e1e7c48bc25dd5ce3e8b1c, type: 3}
  - {fileID: 21300000, guid: 202d885debf39a540bf897c48ea134a0, type: 3}
  - {fileID: 21300000, guid: 97a2549d836b0d04889bceceb0db8246, type: 3}
  - {fileID: 21300000, guid: ecbe00bd82f9bef4390c6f2373e7146c, type: 3}
  - {fileID: 21300000, guid: 2c683cbdb46c10d4382281a51b9a2a9c, type: 3}
  - {fileID: 21300000, guid: 5d0c18cd4dfa3e8448458a221b4d3325, type: 3}
  - {fileID: 21300000, guid: a1cc3ecde1aaeb34f9d0f0035c2ef637, type: 3}
  - {fileID: 21300000, guid: 0240980eeee0af04aab5ff6e3c8b6739, type: 3}
  - {fileID: 21300000, guid: 22f6784e7421e47459308b17d0501fc9, type: 3}
  - {fileID: 21300000, guid: b731325e6f5188e44b956e6df63772fb, type: 3}
  - {fileID: 21300000, guid: 09e7555e3b4509741ac228d51859fd9e, type: 3}
  - {fileID: 21300000, guid: 31a1c08ef8e17c945b91130a325fbf98, type: 3}
  - {fileID: 21300000, guid: acb3319ea54d1c548acc3f4c0d9a9c41, type: 3}
  - {fileID: 21300000, guid: f811b2ae820e7884f9a909d2a74dc618, type: 3}
  - {fileID: 21300000, guid: 719604deb06193e45add566c93adaf8c, type: 3}
  - {fileID: 21300000, guid: 79d646decab4e7f41b882333b5914ef3, type: 3}
  - {fileID: 21300000, guid: 685dd0fec34fff445a09bc36e7676e59, type: 3}
  - {fileID: 21300000, guid: fd6e4cfe855d6fd4eb5b493ed445392e, type: 3}
  - {fileID: 21300000, guid: bece194f9ef37b8468def63287f96d4e, type: 3}
  - {fileID: 21300000, guid: 7d11325f71c79834abc2dc5dd3a65acb, type: 3}
  - {fileID: 21300000, guid: dcea635f3e7768a429248e164e4c606c, type: 3}
  - {fileID: 21300000, guid: 461ae46f9adea744b9c91f27b4008dea, type: 3}
  - {fileID: 21300000, guid: ef5f1a6f6b942494fb5651b8ca16f9b5, type: 3}
  - {fileID: 21300000, guid: 7b103d7f18092454aaebbd6f04158696, type: 3}
  - {fileID: 21300000, guid: 99eaf89ffa13f83459d45ef15105dff0, type: 3}
  - {fileID: 21300000, guid: ba139cffb276a4146bdb3e10c5e25691, type: 3}
  m_PackedSpriteNamesToIndex:
  - turtle_thruster_020
  - turtle_explosion_035
  - turtle_explosion_013
  - turtle_explosion_041
  - turtle_turbo_thruster_013
  - turtle_thruster_005
  - turtle_explosion_005
  - turtle_explosion_038
  - turtle_explosion_032
  - turtle_explosion_042
  - turtle_turbo_thruster_021
  - turtle_explosion_025
  - turtle_turbo_thruster_020
  - turtle_explosion_046
  - turtle_explosion_045
  - turtle_explosion_040
  - turtle_thruster_013
  - turtle_explosion_069
  - turtle_explosion_012
  - turtle_explosion_055
  - turtle_thruster_000
  - turtle_explosion_022
  - turtle_explosion_064
  - turtle_explosion_037
  - turtle_explosion_056
  - turtle_turbo_thruster_004
  - turtle_turbo_thruster_015
  - turtle_thruster_001
  - turtle_thruster_002
  - turtle_turbo_thruster_008
  - turtle_explosion_004
  - turtle_turbo_thruster_001
  - turtle_thruster_014
  - turtle_explosion_077
  - turtle_turbo_thruster_000
  - turtle_explosion_065
  - turtle_turbo_thruster_003
  - turtle_thruster_009
  - turtle_explosion_014
  - turtle_explosion_075
  - turtle_explosion_052
  - turtle_thruster_029
  - turtle_thruster_019
  - turtle_turbo_thruster_016
  - turtle_explosion_062
  - turtle_explosion_036
  - turtle_explosion_001
  - turtle_thruster_008
  - turtle_explosion_072
  - turtle_turbo_thruster_014
  - turtle_explosion_031
  - turtle_explosion_015
  - turtle_explosion_033
  - turtle_turbo_thruster_024
  - turtle_explosion_053
  - turtle_explosion_060
  - turtle_explosion_009
  - turtle_explosion_051
  - turtle_explosion_003
  - turtle_thruster_024
  - turtle_explosion_073
  - turtle_turbo_thruster_005
  - turtle_explosion_008
  - turtle_explosion_029
  - turtle_thruster_011
  - turtle_explosion_023
  - turtle_turbo_thruster_026
  - turtle_explosion_074
  - turtle_thruster_022
  - turtle_explosion_059
  - turtle_explosion_019
  - turtle_turbo_thruster_023
  - turtle_explosion_070
  - turtle_turbo_thruster_012
  - turtle_explosion_010
  - turtle_explosion_083
  - turtle_explosion_048
  - turtle_thruster_025
  - turtle_explosion_057
  - turtle_explosion_016
  - turtle_explosion_082
  - turtle_thruster_026
  - turtle_explosion_054
  - turtle_explosion_061
  - turtle_explosion_000
  - turtle_explosion_030
  - turtle_explosion_050
  - turtle_explosion_018
  - turtle_thruster_015
  - turtle_explosion_017
  - turtle_turbo_thruster_007
  - turtle_turbo_thruster_010
  - turtle_turbo_thruster_009
  - turtle_explosion_044
  - turtle_explosion_034
  - turtle_thruster_012
  - turtle_explosion_026
  - turtle_explosion_068
  - turtle_explosion_076
  - turtle_turbo_thruster_029
  - turtle_turbo_thruster_011
  - turtle_explosion_007
  - turtle_explosion_080
  - turtle_explosion_058
  - turtle_explosion_078
  - turtle_explosion_039
  - Turtle
  - turtle_explosion_071
  - turtle_turbo_thruster_017
  - turtle_thruster_028
  - turtle_thruster_018
  - turtle_explosion_020
  - turtle_thruster_023
  - turtle_turbo_thruster_006
  - turtle_explosion_066
  - turtle_thruster_017
  - turtle_turbo_thruster_022
  - turtle_turbo_thruster_018
  - turtle_thruster_016
  - turtle_explosion_081
  - turtle_explosion_079
  - turtle_thruster_004
  - turtle_explosion_027
  - turtle_explosion_063
  - turtle_explosion_043
  - turtle_explosion_011
  - turtle_explosion_006
  - turtle_explosion_067
  - turtle_thruster_010
  - turtle_turbo_thruster_028
  - turtle_thruster_003
  - turtle_turbo_thruster_002
  - turtle_explosion_024
  - turtle_turbo_thruster_025
  - turtle_explosion_047
  - turtle_turbo_thruster_019
  - turtle_explosion_021
  - turtle_thruster_007
  - turtle_thruster_006
  - turtle_explosion_002
  - turtle_explosion_049
  - turtle_thruster_027
  - turtle_explosion_028
  - turtle_thruster_021
  - turtle_turbo_thruster_027
  m_RenderDataMap: {}
  m_Tag: Turtle Ship
  m_IsVariant: 0
